<?xml version="1.0" standalone="no"?>
<!DOCTYPE svg PUBLIC "-//W3C//DTD SVG 20010904//EN"
 "http://www.w3.org/TR/2001/REC-SVG-20010904/DTD/svg10.dtd">
<svg version="1.0" xmlns="http://www.w3.org/2000/svg"
 width="260.000000pt" height="260.000000pt" viewBox="0 0 260.000000 260.000000"
 preserveAspectRatio="xMidYMid meet">
<metadata>
Created by potrace 1.11, written by Peter Selinger 2001-2013
</metadata>
<g transform="translate(0.000000,260.000000) scale(0.100000,-0.100000)"
fill="#000000" stroke="none">
<path d="M519 1698 c-1 -65 -7 -122 -19 -168 -23 -91 -29 -109 -56 -165 -62
-132 -188 -285 -312 -380 -48 -36 -52 -42 -52 -82 0 -24 3 -43 7 -43 25 0 184
128 266 214 156 163 263 392 266 569 l1 37 680 0 680 0 1 -27 c7 -262 186
-554 458 -745 l81 -57 0 47 c0 46 -2 50 -52 87 -74 57 -182 169 -231 240 -103
151 -153 304 -156 478 l-1 47 -780 0 -780 0 -1 -52z"/>
</g>
</svg>
